name jag
num_chars 94
! 3 5 1 4 0 3 1 2 2 3 1 4 2 1 8 1 5 2 1 5 1 6 
" 4 2 0 8 0 5 2 0 5 0 6 2 1 8 1 5 2 1 5 1 6 
# 8 2 2 8 2 5 2 2 2 2 5 2 4 8 4 5 2 4 2 4 5 2 0 6 4 6 2 6 6 3 6 2 0 4 4 4 2 6 4 3 4 
$ 4 2 2 8 2 3 2 2 0 2 4 7 4 6 1 6 0 5 0 4 4 4 4 2 0 2 2 0 2 1 2 
% 4 5 3 2 4 2 4 3 3 3 3 2 5 0 6 0 5 1 5 1 6 0 6 2 0 2 3 5 2 4 6 2 4 
& 7 3 4 3 3 2 1 2 2 1 2 0 3 2 4 1 0 6 2 0 6 1 7 2 0 3 3 6 2 3 6 2 7 2 1 7 2 7 
' 2 2 0 8 0 6 2 0 6 0 7 
( 3 3 3 8 0 6 0 4 2 3 2 0 4 2 0 4 0 5 
) 4 2 3 4 3 6 2 0 8 3 6 2 0 2 3 4 2 3 4 3 5 
* 6 2 0 6 3 3 2 4 2 2 4 2 0 2 2 4 2 4 6 2 4 2 0 4 2 4 2 4 4 2 4 
+ 4 2 0 4 3 4 2 4 4 2 4 2 2 6 2 4 2 2 2 2 4 
, 3 2 0 2 0 1 2 -1 0 0 1 2 0 1 0 2 
- 2 2 0 4 3 4 2 4 4 2 4 
. 1 5 1 2 0 3 1 4 2 3 1 2 
/ 2 2 0 2 3 6 2 3 6 0 2 
0 1 6 0 2 3 2 3 5 2 6 0 6 0 2 
1 2 2 0 6 0 3 2 0 2 0 4 
2 2 7 0 6 2 6 3 5 3 4 0 4 0 2 3 2 2 3 2 2 2 
3 4 3 2 6 3 5 3 2 2 0 4 3 4 2 0 6 2 6 2 0 2 3 2 
4 4 2 2 5 2 2 2 2 2 2 3 3 0 6 0 3 3 3 2 3 3 2 3 
5 2 7 0 2 3 2 3 4 0 4 0 5 1 6 3 6 2 3 6 2 6 
6 1 7 3 6 1 6 0 5 0 2 3 2 3 4 0 4 
7 2 4 0 2 3 5 3 6 0 6 2 0 6 1 6 
8 3 2 0 3 0 3 5 0 2 3 2 3 6 0 6 0 2 2 0 4 3 4 
9 2 6 2 2 3 3 3 6 0 6 0 4 3 4 2 0 2 2 2 
: 2 5 1 2 0 3 1 4 2 3 1 2 5 1 7 2 6 1 5 0 6 1 7 
; 4 5 0 6 1 7 2 6 1 5 0 6 2 1 4 1 2 2 -1 0 1 2 2 1 2 1 3 
< 3 2 3 6 0 4 2 3 2 0 4 2 0 4 3 2 
= 4 2 0 5 3 5 2 4 5 2 5 2 0 3 3 3 2 4 3 2 3 
> 2 3 0 2 3 4 0 6 2 0 6 3 4 
? 3 5 0 3 1 4 2 3 1 2 0 3 5 0 7 1 8 2 8 3 7 1 5 2 1 5 2 6 
@ 2 9 4 2 1 2 1 6 4 6 4 3 2 3 2 5 3 5 3 3 2 4 2 3 2 
A 4 3 0 2 0 8 4 8 2 0 5 4 5 2 4 2 4 8 2 4 2 4 3 
B 2 6 0 2 3 2 4 3 4 8 0 8 0 2 2 0 5 4 5 
C 2 5 4 2 0 2 0 7 1 8 4 8 2 4 8 3 8 
D 1 6 0 2 3 2 4 3 4 8 0 8 0 2 
E 3 5 4 8 1 8 0 7 0 2 4 2 2 4 5 0 5 2 4 2 3 2 
F 3 4 4 8 1 8 0 7 0 2 2 0 2 0 3 2 4 5 0 5 
G 2 7 4 8 0 8 0 2 3 2 4 3 4 5 2 5 2 2 5 3 5 
H 5 2 0 5 4 5 2 4 8 4 2 2 0 8 0 2 2 0 2 0 3 2 4 2 4 3 
I 2 2 0 8 0 2 2 0 2 0 3 
J 2 5 0 2 3 2 4 3 4 8 0 8 2 0 8 1 8 
K 4 2 0 8 0 2 2 0 2 0 3 2 4 8 0 5 2 4 2 0 5 
L 2 3 0 8 0 2 4 2 2 4 2 3 2 
M 3 5 0 2 0 7 1 8 4 8 4 2 2 4 2 4 3 2 2 5 2 8 
N 2 4 0 2 0 8 4 2 4 8 2 4 8 4 7 
O 1 6 0 2 4 2 4 7 3 8 0 8 0 2 
P 1 6 0 2 0 8 4 8 4 5 3 4 0 4 
Q 2 5 4 8 0 8 0 5 1 4 4 4 2 4 2 4 8 
R 3 2 3 2 3 2 6 0 2 0 8 4 8 4 6 3 5 0 5 2 4 2 0 5 
S 2 8 4 8 1 8 0 7 0 5 4 5 4 3 3 2 0 2 2 0 2 1 2 
T 3 2 2 2 2 8 2 0 8 4 8 2 4 8 3 8 
U 2 5 0 8 0 3 1 2 4 2 4 8 2 4 8 4 7 
V 2 4 0 8 1 2 3 2 4 8 2 4 8 3 2 
W 3 5 0 8 0 3 1 2 4 2 4 8 2 4 8 4 7 2 2 5 2 2 
X 4 2 0 8 4 2 2 4 2 0 8 2 0 2 4 8 2 4 8 0 2 
Y 3 3 0 8 2 5 4 8 2 2 2 2 5 2 4 8 2 5 
Z 2 4 0 8 4 8 0 2 4 2 2 4 2 3 2 
[ 2 4 4 8 0 8 0 2 4 2 2 4 2 3 2 
\ 2 2 0 8 3 2 2 3 2 0 8 
] 2 4 0 8 4 8 4 2 0 2 2 0 2 1 2 
^ 2 3 0 4 2 8 4 4 2 4 4 2 8 
_ 2 2 0 2 4 2 2 4 2 3 2 
` 2 3 2 4 0 6 0 8 2 0 8 0 7 
a 1 8 0 5 1 6 3 6 3 2 0 2 0 3 1 4 3 4 
b 2 5 0 2 3 2 3 5 1 5 0 4 2 0 7 0 2 
c 3 3 1 6 0 5 0 2 2 3 2 0 2 2 3 6 1 6 
d 3 4 1 5 0 4 0 2 3 2 2 3 5 1 5 2 3 7 3 2 
e 2 6 0 4 3 4 3 6 1 6 0 5 0 2 2 3 2 0 2 
f 3 3 0 5 1 6 3 6 2 0 3 3 3 2 0 5 0 0 
g 2 6 3 3 1 3 0 4 0 6 3 6 3 0 3 0 1 1 0 3 0 
h 3 3 0 5 1 6 3 6 2 0 8 0 2 2 3 2 3 6 
i 4 5 1 7 0 8 1 9 2 8 1 7 3 0 6 0 6 0 6 2 1 6 1 2 2 1 2 1 3 
j 3 5 2 8 3 9 4 8 3 7 2 8 2 3 6 3 0 3 0 1 1 0 3 0 
k 5 2 0 8 0 2 3 3 6 2 4 0 4 2 2 4 1 4 2 0 2 0 3 3 3 2 3 3 2 4 
l 2 4 0 7 0 3 1 2 3 2 2 3 2 2 2 
m 3 2 2 4 2 6 5 0 2 0 5 1 6 4 6 4 2 2 4 2 4 3 
n 2 5 0 2 0 6 2 6 3 5 3 2 2 3 2 3 3 
o 1 6 0 2 0 6 2 6 3 5 3 2 0 2 
p 2 2 0 0 0 6 5 0 6 3 6 3 4 2 3 0 3 
q 2 5 3 6 0 6 0 4 1 3 3 3 2 3 0 3 6 
r 2 4 0 2 0 5 1 6 3 6 2 3 6 2 6 
s 2 8 0 2 2 2 3 3 3 4 0 4 0 5 1 6 3 6 2 3 6 2 6 
t 3 2 3 5 0 5 4 0 7 0 3 1 2 3 2 2 3 2 2 2 
u 2 5 0 6 0 3 1 2 3 2 3 6 2 3 6 3 5 
v 2 3 0 6 2 2 4 6 2 4 6 2 2 
w 3 5 0 6 0 3 1 2 4 2 4 6 2 2 4 2 2 2 4 6 4 5 
x 6 2 0 6 2 5 2 4 6 2 5 2 0 2 2 3 2 4 2 2 3 2 2 3 2 5 2 2 5 2 3 
y 3 4 0 6 0 4 1 3 3 3 4 0 1 1 0 3 0 3 6 2 3 6 3 5 
z 2 4 0 6 3 6 0 2 3 2 2 3 2 2 2 
{ 3 2 2 5 0 5 7 4 8 2 8 1 7 2 5 1 3 2 2 4 2 2 4 2 3 2 
| 2 2 0 2 0 5 2 0 8 0 3 
} 3 7 0 8 2 8 3 7 2 5 3 3 2 2 0 2 2 2 5 4 5 2 0 2 1 2 
~ 2 6 0 6 0 8 1 8 3 6 4 6 4 8 2 4 8 4 6 
num_kerns 366
! " 1
! 1 1
! | 1
" ! 1
" " 1
" # 1
" $ 1
" % 1
" & 1
" ' 1
" ( 1
" ) 1
" * 1
" + 1
" , 1
" - 1
" . 1
" / 1
" 0 1
" 1 1
" 2 1
" 3 1
" 4 1
" 5 1
" 6 1
" 7 1
" 8 1
" 9 1
" : 1
" ; 1
" < 1
" = 1
" > 1
" ? 1
" A 1
" B 1
" C 1
" D 1
" E 1
" F 1
" G 1
" H 1
" I 1
" J 1
" K 1
" L 1
" M 1
" N 1
" O 1
" P 1
" Q 1
" R 1
" S 1
" T 1
" U 1
" V 1
" W 1
" X 1
" Y 1
" Z 1
" [ 1
" \ 1
" ] 1
" ^ 1
" _ 1
" ` 1
" a 1
" b 1
" c 1
" d 1
" e 1
" f 1
" g 1
" h 1
" i 1
" j 1
" k 1
" l 1
" m 1
" n 1
" o 1
" p 1
" q 1
" r 1
" s 1
" t 1
" u 1
" v 1
" w 1
" x 1
" y 1
" z 1
" { 1
" | 1
" } 1
" ~ 1
# " 1
# 1 1
# | 1
$ " 1
$ 1 1
$ | 1
% " 1
% 1 1
% | 1
& " 1
& 1 1
& | 1
' " 1
' 1 1
' | 1
( " 1
( 1 1
( | 1
) " 1
) 1 1
) | 1
* " 1
* 1 1
* | 1
+ " 1
+ 1 1
+ | 1
, " 1
, 1 1
, | 1
- " 1
- 1 1
- | 1
. " 1
. 1 1
. | 1
/ " 1
/ 1 1
/ | 1
0 " 1
0 1 1
0 | 1
1 ! 1
1 " 1
1 # 1
1 $ 1
1 % 1
1 & 1
1 ' 1
1 ( 1
1 ) 1
1 * 1
1 + 1
1 , 1
1 - 1
1 . 1
1 / 1
1 0 1
1 1 1
1 2 1
1 3 1
1 4 1
1 5 1
1 6 1
1 7 1
1 8 1
1 9 1
1 : 1
1 ; 1
1 < 1
1 = 1
1 > 1
1 ? 1
1 A 1
1 B 1
1 C 1
1 D 1
1 E 1
1 F 1
1 G 1
1 H 1
1 I 1
1 J 1
1 K 1
1 L 1
1 M 1
1 N 1
1 O 1
1 P 1
1 Q 1
1 R 1
1 S 1
1 T 1
1 U 1
1 V 1
1 W 1
1 X 1
1 Y 1
1 Z 1
1 [ 1
1 \ 1
1 ] 1
1 ^ 1
1 _ 1
1 ` 1
1 a 1
1 b 1
1 c 1
1 d 1
1 e 1
1 f 1
1 g 1
1 h 1
1 i 1
1 j 1
1 k 1
1 l 1
1 m 1
1 n 1
1 o 1
1 p 1
1 q 1
1 r 1
1 s 1
1 t 1
1 u 1
1 v 1
1 w 1
1 x 1
1 y 1
1 z 1
1 { 1
1 | 1
1 } 1
1 ~ 1
2 " 1
2 1 1
2 | 1
3 " 1
3 1 1
3 | 1
4 " 1
4 1 1
4 | 1
5 " 1
5 1 1
5 | 1
6 " 1
6 1 1
6 | 1
7 " 1
7 1 1
7 | 1
8 " 1
8 1 1
8 | 1
9 " 1
9 1 1
9 | 1
: " 1
: 1 1
: | 1
; " 1
; 1 1
; | 1
< " 1
< 1 1
< | 1
= " 1
= 1 1
= | 1
> " 1
> 1 1
> | 1
? " 1
? 1 1
? | 1
@ ! 1
@ " 1
@ # 1
@ $ 1
@ % 1
@ & 1
@ ' 1
@ ( 1
@ ) 1
@ * 1
@ + 1
@ , 1
@ - 1
@ . 1
@ / 1
@ 0 1
@ 1 1
@ 2 1
@ 3 1
@ 4 1
@ 5 1
@ 6 1
@ 7 1
@ 8 1
@ 9 1
@ : 1
@ ; 1
@ < 1
@ = 1
@ > 1
@ ? 1
@ A 1
@ B 1
@ C 1
@ D 1
@ E 1
@ F 1
@ G 1
@ H 1
@ I 1
@ J 1
@ K 1
@ L 1
@ M 1
@ N 1
@ O 1
@ P 1
@ Q 1
@ R 1
@ S 1
@ T 1
@ U 1
@ V 1
@ W 1
@ X 1
@ Y 1
@ Z 1
@ [ 1
@ \ 1
@ ] 1
@ ^ 1
@ _ 1
@ ` 1
@ a 1
@ b 1
@ c 1
@ d 1
@ e 1
@ f 1
@ g 1
@ h 1
@ i 1
@ j 1
@ k 1
@ l 1
@ m 1
@ n 1
@ o 1
@ p 1
@ q 1
@ r 1
@ s 1
@ t 1
@ u 1
@ v 1
@ w 1
@ x 1
@ y 1
@ z 1
@ { 1
@ | 1
@ } 1
@ ~ 1
